{
  "collection": "@nestjs/schematics",
  "sourceRoot": "apps/gaviti/src",
  "monorepo": true,
  "root": "apps/gaviti",
  "compilerOptions": {
    "webpack": true,
    "tsConfigPath": "apps/gaviti/tsconfig.app.json"
  },
  "projects": {
    "gaviti": {
      "type": "application",
      "root": "apps/gaviti",
      "entryFile": "main",
      "sourceRoot": "apps/gaviti/src",
      "compilerOptions": {
        "tsConfigPath": "apps/gaviti/tsconfig.app.json"
      }
    },
    "customer": {
      "type": "application",
      "root": "apps/customer",
      "entryFile": "main",
      "sourceRoot": "apps/customer/src",
      "compilerOptions": {
        "tsConfigPath": "apps/customer/tsconfig.app.json"
      }
    },
    "etl": {
      "type": "application",
      "root": "apps/etl",
      "entryFile": "main",
      "sourceRoot": "apps/etl/src",
      "compilerOptions": {
        "tsConfigPath": "apps/etl/tsconfig.app.json"
      }
    }
  }
}